{
    "dbUrl": "mongodb://localhost:27017/PRODUCT-MANAGEMENT",
    "APPLICATIONS":"db_applications",
    "USER":"db_user",
    "PRODUCT":"db_product",
    "SESSION":"db_session",
    "LOGIN_LOG": "db_login_log",
    "SESSION_LOG": "db_session_log",
    "PRIVILEGE": "db_privilege"
}